[Event "Gelfand, B. - Nakamura, Hi (2010.01.09)"]
[Site "Bursa TUR"]
[Date "2010.01.09"]
[Round "?"]
[White "Gelfand, B."]
[Black "Nakamura, Hi"]
[Result "0-1"]

1. d4 Nf6 2. c4 g6 3. Nc3 Bg7 4. e4 d6 5. Nf3 O-O 6. Be2 e5 7. O-O Nc6 8. d5 Ne7
9. Nd2 Ne8 10. b4 f5 11. c5 Nf6 12. f3 f4 13. Nc4 g5 14. a4 Ng6 15. Ba3 Rf7 16.
b5 dxc5 17. Bxc5 h5 18. a5 g4 19. b6 g3 20. Kh1 Bf8 21. d6 axb6 22. Bg1 Nh4 23.
Re1 Nxg2 24. dxc7 Nxe1 25. Qxe1 g2+ 26. Kxg2 Rg7+ 27. Kh1 Bh3 28. Bf1 Qd3 29.
Nxe5 Bxf1 30. Qxf1 Qxc3 31. Rc1 Qxe5 32. c8=Q Rxc8 33. Rxc8 Qe6 0-1