[Event "Karpov Anatoly (RUS) - Kasparov Garry (RUS) (1993.??.??)"]
[Site "Linares (Spain)"]
[Date "1993.??.??"]
[Round "?"]
[White "Karpov Anatoly "]
[Black "Kasparov Garry "]
[Result "0-1"]

1. d4 Nf6 2. c4 g6 3. Nc3 Bg7 4. e4 d6 5. f3 O-O 6. Be3 e5 7. Nge2 c6 8. Qd2
Nbd7 9. Rd1 a6 10. dxe5 Nxe5 11. b3 b5 12. cxb5 axb5 13. Qxd6 Nfd7 14. f4 b4 15.
Nb1 Ng4 16. Bd4 Bxd4 17. Qxd4 Rxa2 18. h3 c5 19. Qg1 Ngf6 20. e5 Ne4 21. h4 c4
22. Nc1 c3 23. Nxa2 c2 24. Qd4 cxd1=Q+ 25. Kxd1 Ndc5 26. Qxd8 Rxd8+ 27. Kc2 Nf2
0-1