[Event "Kotov Alexander A (RUS) - Petrosian Tigran V (ARM) (1949.??.??)"]
[Site "Moscow (Russia)"]
[Date "1949.??.??"]
[Round "?"]
[White "Kotov Alexander A "]
[Black "Petrosian Tigran V "]
[Result "1-0"]

1. d4 d5 2. c4 e6 3. Nc3 Nf6 4. cxd5 exd5 5. Bg5 Be7 6. e3 c6 7. Qc2 Ne4 8. Bxe7
Qxe7 9. Nxd5 cxd5 10. Qxc8+ Qd8 11. Bb5+ Nc6 12. Bxc6+ bxc6 13. Qxc6+ 1-0