[Event "Live Chess"]
[Site "Chess.com"]
[Date "2019.08.09"]
[Round "?"]
[White "tzograf"]
[Black "kcboy66"]
[Result "0-1"]
[TimeControl "600"]
[WhiteElo "1660"]
[BlackElo "1711"]
[Termination "kcboy66 won by resignation"]

1. e4 {[%clk 0:09:59.9]} 1... e5 {[%clk 0:09:58.7]} 2. Nc3 {[%clk 0:09:56]} 2...
c5 {[%clk 0:09:57.8]} 3. d3 {[%clk 0:09:54.3]} 3... Nc6 {[%clk 0:09:56.9]} 4. f4
{[%clk 0:09:52.7]} 4... exf4 {[%clk 0:09:54.4]} 5. Bxf4 {[%clk 0:09:51.4]} 5...
d6 {[%clk 0:09:53.5]} 6. Nf3 {[%clk 0:09:45.1]} 6... Nf6 {[%clk 0:09:51.5]} 7.
Qd2 {[%clk 0:09:33.7]} 7... Be7 {[%clk 0:09:49.6]} 8. O-O-O {[%clk 0:09:29.3]}
8... a6 {[%clk 0:09:48.8]} 9. Nd5 {[%clk 0:09:23.9]} 9... b5 {[%clk 0:09:41.8]}
10. Nxe7 {[%clk 0:09:21.3]} 10... Qxe7 {[%clk 0:09:39.3]} 11. e5 {[%clk
0:09:10.6]} 11... dxe5 {[%clk 0:09:31.1]} 12. Nxe5 {[%clk 0:09:09.2]} 12... Nxe5
{[%clk 0:09:28.2]} 13. Bxe5 {[%clk 0:09:08.1]} 13... Be6 {[%clk 0:09:27.2]} 14.
Re1 {[%clk 0:08:49.4]} 14... O-O {[%clk 0:09:18.6]} 15. g3 {[%clk 0:08:38.9]}
15... Rad8 {[%clk 0:09:07.8]} 16. Bg2 {[%clk 0:08:18.9]} 16... c4 {[%clk
0:08:51.6]} 17. d4 {[%clk 0:08:13.9]} 17... b4 {[%clk 0:08:42.7]} 18. Bxf6
{[%clk 0:08:06.7]} 18... gxf6 {[%clk 0:08:23.6]} 19. d5 {[%clk 0:07:50.7]} 19...
c3 {[%clk 0:08:14.2]} 20. Qd3 {[%clk 0:07:41.2]} 20... cxb2+ {[%clk 0:08:02.2]}
21. Kb1 {[%clk 0:07:39.4]} 21... Qd6 {[%clk 0:07:42.8]} 22. dxe6 {[%clk
0:07:24.1]} 22... Qxd3 {[%clk 0:07:41.3]} 23. cxd3 {[%clk 0:07:23.1]} 23... Rxd3
{[%clk 0:07:32.9]} 24. exf7+ {[%clk 0:07:21.6]} 24... Kxf7 {[%clk 0:07:24.9]}
25. Rd1 {[%clk 0:07:18.1]} 25... Rc3 {[%clk 0:07:11.4]} 26. Kxb2 {[%clk
0:07:12.9]} 26... a5 {[%clk 0:07:01.9]} 27. Bd5+ {[%clk 0:07:09.2]} 27... Kg6
{[%clk 0:06:57.1]} 28. Rhe1 {[%clk 0:07:02.7]} 28... a4 {[%clk 0:06:52.3]} 29.
Be4+ {[%clk 0:06:51.5]} 29... f5 {[%clk 0:06:47.2]} 30. Rd6+ {[%clk 0:06:45.3]}
30... Kg5 {[%clk 0:06:46.1]} 31. h4+ {[%clk 0:06:27]} 31... Kg4 {[%clk
0:06:39.9]} 32. Bb1 {[%clk 0:06:19.8]} 32... Rfc8 {[%clk 0:05:55.8]} 33. Rd4+
{[%clk 0:06:09.1]} 33... Kxg3 {[%clk 0:05:46.1]} 34. Rxb4 {[%clk 0:06:07.5]}
34... a3+ {[%clk 0:05:36.7]} 35. Ka1 {[%clk 0:06:04.3]} 35... Rc1 {[%clk
0:05:33.6]} 36. Rb3+ {[%clk 0:05:45.2]} 36... Kxh4 {[%clk 0:05:21.5]} 37. Rxc1
{[%clk 0:05:43.7]} 37... Rxc1 {[%clk 0:05:19.5]} 38. Rxa3 {[%clk 0:05:43.1]}
38... f4 {[%clk 0:05:15.5]} 39. Kb2 {[%clk 0:05:40]} 39... Re1 {[%clk
0:05:10.2]} 40. Rf3 {[%clk 0:05:32.9]} 40... Kg4 {[%clk 0:05:02.7]} 41. Rf2
{[%clk 0:05:19.2]} 41... Kg3 {[%clk 0:04:58.1]} 42. Rc2 {[%clk 0:05:09.2]} 42...
f3 {[%clk 0:04:54.1]} 43. Rc1 {[%clk 0:04:52]} 43... Re2+ {[%clk 0:04:46.7]} 44.
Kb3 {[%clk 0:04:45.7]} 44... f2 {[%clk 0:04:40.7]} 45. Rf1 {[%clk 0:04:34.1]}
45... Re1 {[%clk 0:04:32.6]} 46. Bd3 {[%clk 0:04:31.5]} 46... Kf3 {[%clk
0:04:00.7]} 47. a4 {[%clk 0:04:27.4]} 47... Ke3 {[%clk 0:03:58.1]} 48. Ba6
{[%clk 0:04:20.2]} 48... h5 {[%clk 0:03:48]} 49. a5 {[%clk 0:04:18.1]} 49... h4
{[%clk 0:03:44.7]} 50. Bc4 {[%clk 0:04:15.4]} 50... h3 {[%clk 0:03:40.7]} 51. a6
{[%clk 0:04:07.6]} 51... h2 {[%clk 0:03:38.1]} 52. Kb2 {[%clk 0:03:59.3]} 52...
Rxf1 {[%clk 0:03:28.8]} 53. Bxf1 {[%clk 0:03:56.8]} 53... h1=Q {[%clk
0:03:27.7]} 54. a7 {[%clk 0:03:42]} 54... Qa8 {[%clk 0:03:23.5]} 0-1