[Event "Van Wely Loek (NED) - Acs Peter (HUN) (2002.??.??)"]
[Site "Hoogeveen (Netherlands)"]
[Date "2002.??.??"]
[Round "?"]
[White "Van Wely Loek "]
[Black "Acs Peter "]
[Result "0-1"]

1. d4 Nf6 2. c4 e6 3. Nc3 Bb4 4. e3 O-O 5. Bd3 d5 6. cxd5 exd5 7. Ne2 Re8 8. O-O
Bd6 9. a3 Ng4 10. h3 Nh2 11. Re1 Nf3+ 12. gxf3 Qg5+ 13. Kh1 Qh4 14. Nf4 Bxh3 15.
Ncxd5 Re6 16. Nxe6 Bf5+ 17. Kg1 Qh2+ 18. Kf1 Bg3 0-1